…
# Fall back to internal test data if downloading or reading fails
if (inherits(sr, "try-error")) {
  sr <- system.file("testdata/Daten_Pflanzenschutzmittelverzeichnis_2024-12-16.zip",
      package = "srppp") |>
    srppp_xml_get_from_path(from = "2024-12-16") |>
    srppp_dm()
}

# Examples with two active substances
actives_de <- c("Lambda-Cyhalothrin", "Deltamethrin")
alternative_products(sr, actives_de)
#> # A tibble: 924 × 5
#>    application_area_de culture_de   pest_de                        n_wNbr n_pNbr
#>    <chr>               <chr>        <chr>                           <int>  <int>
#>  1 Beerenbau           Erdbeere     Erdbeer- oder Himbeerblütenst…     18      7
#>  2 Beerenbau           Erdbeere     Thripse                            38     21
#>  3 Beerenbau           Himbeere     Erdbeer- oder Himbeerblütenst…     12      3
#>  4 Beerenbau           Himbeere     Himbeerkäfer                       12      3
#>  5 Feldbau             Ackerbohne   Erdraupen                           6      4
#>  6 Feldbau             Eiweisserbse Erbsenblattrandkäfer                0      0
#>  7 Feldbau             Eiweisserbse Erbsenwickler                       4      1
#>  8 Feldbau             Eiweisserbse Erdraupen                           6      4
#>  9 Feldbau             Emmer        Erdraupen                           6      4
#> 10 Feldbau             Emmer        Gelbe Getreidehalmfliege            6      4
#> # ℹ 914 more rows
alternative_products(sr, actives_de, resolve_cultures = FALSE)
#> # A tibble: 484 × 5
#>    application_area_de culture_de              pest_de             n_wNbr n_pNbr
#>    <chr>               <chr>                   <chr>                <int>  <int>
#>  1 Beerenbau           Erdbeere                Erdbeer- oder Himb…     18      7
#>  2 Beerenbau           Erdbeere                Thripse                 33     16
#>  3 Beerenbau           Himbeere                Erdbeer- oder Himb…     12      3
#>  4 Beerenbau           Himbeere                Himbeerkäfer            12      3
#>  5 Feldbau             Ackerbohne              Erdraupen                6      4
#>  6 Feldbau             Eiweisserbse            Erbsenblattrandkäf…      0      0
#>  7 Feldbau             Eiweisserbse            Erbsenwickler            4      1
#>  8 Feldbau             Eiweisserbse            Erdraupen                6      4
#>  9 Feldbau             Futter- und Zuckerrüben Blattläuse (Röhren…      6      2
#> 10 Feldbau             Futter- und Zuckerrüben Erdraupen                6      4
#> # ℹ 474 more rows
alternative_products(sr, actives_de, missing = TRUE)
#> # A tibble: 110 × 3
#>    application_area_de culture_de                       pest_de              
#>    <chr>               <chr>                            <chr>                
#>  1 Feldbau             Eiweisserbse                     Erbsenblattrandkäfer 
#>  2 Feldbau             Futterrübe                       Rübenfliege          
#>  3 Feldbau             Zuckerrübe                       Rübenfliege          
#>  4 Feldbau             Lagerhallen, Mühlen, Silogebäude Vorratsschädlinge    
#>  5 Feldbau             Mais                             Fritfliege           
#>  6 Feldbau             Sojabohne                        Distelfalter         
#>  7 Gemüsebau           Asia-Salate (Brassicaceae)       Kohldrehherzgallmücke
#>  8 Gemüsebau           Asia-Salate (Brassicaceae)       Kohlschabe           
#>  9 Gemüsebau           Baby-Leaf (Asteraceae)           Minierfliegen        
#> 10 Gemüsebau           Baby-Leaf (Brassicaceae)         Kohldrehherzgallmücke
#> # ℹ 100 more rows
alternative_products(sr, actives_de, details = TRUE)
#> # A tibble: 37,713 × 7
#>    application_area_de culture_de pest_de                pNbr wNbr  use_nr type 
#>    <chr>               <chr>      <chr>                 <int> <chr>  <int> <chr>
#>  1 Beerenbau           Erdbeere   Erdbeer- oder Himbee…  4426 4343      17 PEST…
#>  2 Beerenbau           Erdbeere   Erdbeer- oder Himbee…  4568 4491      12 PEST…
#>  3 Beerenbau           Erdbeere   Erdbeer- oder Himbee…  4568 4491…     12 PEST…
#>  4 Beerenbau           Erdbeere   Erdbeer- oder Himbee…  7036 6020      37 PEST…
#>  5 Beerenbau           Erdbeere   Erdbeer- oder Himbee…  7036 6020…     37 PEST…
#>  6 Beerenbau           Erdbeere   Erdbeer- oder Himbee…  7036 6020…     37 PEST…
#>  7 Beerenbau           Erdbeere   Erdbeer- oder Himbee…  8464 7133       7 PEST…
#>  8 Beerenbau           Erdbeere   Erdbeer- oder Himbee…  8464 7133…      7 PEST…
#>  9 Beerenbau           Erdbeere   Erdbeer- oder Himbee…  8464 7133…      7 PEST…
#> 10 Beerenbau           Erdbeere   Erdbeer- oder Himbee…  8464 7133…      7 PEST…
#> # ℹ 37,703 more rows
alternative_products(sr, actives_de, list = TRUE)
#> $`No alternative`
#> # A tibble: 110 × 3
#>    application_area_de culture_de                       pest_de              
#>    <chr>               <chr>                            <chr>                
#>  1 Feldbau             Eiweisserbse                     Erbsenblattrandkäfer 
#>  2 Feldbau             Futterrübe                       Rübenfliege          
#>  3 Feldbau             Zuckerrübe                       Rübenfliege          
#>  4 Feldbau             Lagerhallen, Mühlen, Silogebäude Vorratsschädlinge    
#>  5 Feldbau             Mais                             Fritfliege           
#>  6 Feldbau             Sojabohne                        Distelfalter         
#>  7 Gemüsebau           Asia-Salate (Brassicaceae)       Kohldrehherzgallmücke
#>  8 Gemüsebau           Asia-Salate (Brassicaceae)       Kohlschabe           
#>  9 Gemüsebau           Baby-Leaf (Asteraceae)           Minierfliegen        
#> 10 Gemüsebau           Baby-Leaf (Brassicaceae)         Kohldrehherzgallmücke
#> # ℹ 100 more rows
#> 
#> $`Number of alternatives`
#> # A tibble: 924 × 5
#>    application_area_de culture_de   pest_de                        n_wNbr n_pNbr
#>    <chr>               <chr>        <chr>                           <int>  <int>
#>  1 Beerenbau           Erdbeere     Erdbeer- oder Himbeerblütenst…     18      7
#>  2 Beerenbau           Erdbeere     Thripse                            38     21
#>  3 Beerenbau           Himbeere     Erdbeer- oder Himbeerblütenst…     12      3
#>  4 Beerenbau           Himbeere     Himbeerkäfer                       12      3
#>  5 Feldbau             Ackerbohne   Erdraupen                           6      4
#>  6 Feldbau             Eiweisserbse Erbsenblattrandkäfer                0      0
#>  7 Feldbau             Eiweisserbse Erbsenwickler                       4      1
#>  8 Feldbau             Eiweisserbse Erdraupen                           6      4
#>  9 Feldbau             Emmer        Erdraupen                           6      4
#> 10 Feldbau             Emmer        Gelbe Getreidehalmfliege            6      4
#> # ℹ 914 more rows
#> 
#> $`Alternative uses`
#> # A tibble: 37,713 × 7
#>    application_area_de culture_de pest_de                pNbr wNbr  use_nr type 
#>    <chr>               <chr>      <chr>                 <int> <chr>  <int> <chr>
#>  1 Beerenbau           Erdbeere   Erdbeer- oder Himbee…  4426 4343      17 PEST…
#>  2 Beerenbau           Erdbeere   Erdbeer- oder Himbee…  4568 4491      12 PEST…
#>  3 Beerenbau           Erdbeere   Erdbeer- oder Himbee…  4568 4491…     12 PEST…
#>  4 Beerenbau           Erdbeere   Erdbeer- oder Himbee…  7036 6020      37 PEST…
#>  5 Beerenbau           Erdbeere   Erdbeer- oder Himbee…  7036 6020…     37 PEST…
#>  6 Beerenbau           Erdbeere   Erdbeer- oder Himbee…  7036 6020…     37 PEST…
#>  7 Beerenbau           Erdbeere   Erdbeer- oder Himbee…  8464 7133       7 PEST…
#>  8 Beerenbau           Erdbeere   Erdbeer- oder Himbee…  8464 7133…      7 PEST…
#>  9 Beerenbau           Erdbeere   Erdbeer- oder Himbee…  8464 7133…      7 PEST…
#> 10 Beerenbau           Erdbeere   Erdbeer- oder Himbee…  8464 7133…      7 PEST…
#> # ℹ 37,703 more rows
…
#>   <chr>               <chr>      <chr>                      
#> 1 Obstbau             Kernobst   Eulenraupen (blattfressend)
#> 
#> $`Number of alternatives`
#> # A tibble: 5 × 5
#>   application_area_de culture_de    pest_de                     n_wNbr n_pNbr
#>   <chr>               <chr>         <chr>                        <int>  <int>
#> 1 Obstbau             Birne / Nashi Birnblattsauger                 35     22
#> 2 Obstbau             Kernobst      Apfelwickler                    15     12
#> 3 Obstbau             Kernobst      Eulenraupen (blattfressend)      0      0
#> 4 Obstbau             Kernobst      Frostspanner                    36     16
#> 5 Obstbau             Kernobst      Schalenwickler                  16      9
#> 
#> $`Alternative uses`
#> # A tibble: 107 × 7
#>    application_area_de culture_de    pest_de          pNbr wNbr   use_nr type   
#>    <chr>               <chr>         <chr>           <int> <chr>   <int> <chr>  
#>  1 Obstbau             Birne / Nashi Birnblattsauger  7051 6098       16 PEST_F…
#>  2 Obstbau             Birne / Nashi Birnblattsauger  7051 6098-1     16 PEST_F…
#>  3 Obstbau             Birne / Nashi Birnblattsauger  7051 6098-2     16 PEST_F…
#>  4 Obstbau             Birne / Nashi Birnblattsauger  7169 6148        1 PEST_P…
#>  5 Obstbau             Birne / Nashi Birnblattsauger  7291 6107        1 PEST_F…
#>  6 Obstbau             Birne / Nashi Birnblattsauger  7291 6107-1      1 PEST_F…
#>  7 Obstbau             Birne / Nashi Birnblattsauger  7291 6107-2      1 PEST_F…
#>  8 Obstbau             Birne / Nashi Birnblattsauger  7441 6382        5 PEST_F…
#>  9 Obstbau             Birne / Nashi Birnblattsauger  7511 6432       22 PEST_F…
#> 10 Obstbau             Birne / Nashi Birnblattsauger  7511 6432-1     22 PEST_F…
#> # ℹ 97 more rows
…
#>  2 Obstbau             Apfel      Eulenraupen (blattfressend)      0      0
#>  3 Obstbau             Apfel      Frostspanner                    60     26
#>  4 Obstbau             Apfel      Schalenwickler                  25     13
#>  5 Obstbau             Birne      Apfelwickler                    38     25
#>  6 Obstbau             Birne      Birnblattsauger                 36     23
#>  7 Obstbau             Birne      Eulenraupen (blattfressend)      0      0
#>  8 Obstbau             Birne      Frostspanner                    60     26
#>  9 Obstbau             Birne      Schalenwickler                  25     13
#> 10 Obstbau             Quitte     Apfelwickler                    29     21
#> 11 Obstbau             Quitte     Eulenraupen (blattfressend)      0      0
#> 12 Obstbau             Quitte     Frostspanner                    53     24
#> 13 Obstbau             Quitte     Schalenwickler                  18     11
#> 
#> $`Alternative uses`
#> # A tibble: 405 × 7
#>    application_area_de culture_de pest_de          pNbr wNbr   use_nr type      
#>    <chr>               <chr>      <chr>           <int> <chr>   <int> <chr>     
#>  1 Obstbau             Birne      Birnblattsauger  7051 6098       16 PEST_FULL…
#>  2 Obstbau             Birne      Birnblattsauger  7051 6098-1     16 PEST_FULL…
#>  3 Obstbau             Birne      Birnblattsauger  7051 6098-2     16 PEST_FULL…
#>  4 Obstbau             Birne      Birnblattsauger  7169 6148        1 PEST_PART…
#>  5 Obstbau             Birne      Birnblattsauger  7291 6107        1 PEST_FULL…
#>  6 Obstbau             Birne      Birnblattsauger  7291 6107-1      1 PEST_FULL…
#>  7 Obstbau             Birne      Birnblattsauger  7291 6107-2      1 PEST_FULL…
#>  8 Obstbau             Birne      Birnblattsauger  7441 6382        5 PEST_FULL…
#>  9 Obstbau             Birne      Birnblattsauger  7511 6432       22 PEST_FULL…
#> 10 Obstbau             Birne      Birnblattsauger  7511 6432-1     22 PEST_FULL…
#> # ℹ 395 more rows
…
#>    application_area_de culture_de           pest_de        n_wNbr n_pNbr
#>    <chr>               <chr>                <chr>           <int>  <int>
#>  1 Obstbau             Apfel                Schalenwickler     25     13
#>  2 Obstbau             Aprikose             Schalenwickler     13      9
#>  3 Obstbau             Birne                Schalenwickler     25     13
#>  4 Obstbau             Kirsche              Schalenwickler     20     11
#>  5 Obstbau             Olive                Schalenwickler      1      1
#>  6 Obstbau             Pfirsich / Nektarine Schalenwickler     13      9
#>  7 Obstbau             Pflaume              Schalenwickler     20     11
#>  8 Obstbau             Quitte               Schalenwickler     18     11
#>  9 Obstbau             Walnuss              Schalenwickler      3      3
#> 10 Obstbau             Zwetschge            Schalenwickler     20     11
#> 
#> $`Alternative uses`
#> # A tibble: 179 × 7
#>    application_area_de culture_de pest_de         pNbr wNbr   use_nr type       
#>    <chr>               <chr>      <chr>          <int> <chr>   <int> <chr>      
#>  1 Obstbau             Olive      Schalenwickler  7545 6362        1 PEST_FULL_…
#>  2 Obstbau             Apfel      Schalenwickler  7036 6020       57 PEST_FULL_…
#>  3 Obstbau             Apfel      Schalenwickler  7036 6020       58 PEST_FULL_…
#>  4 Obstbau             Apfel      Schalenwickler  7036 6020-1     57 PEST_FULL_…
#>  5 Obstbau             Apfel      Schalenwickler  7036 6020-1     58 PEST_FULL_…
#>  6 Obstbau             Apfel      Schalenwickler  7036 6020-2     57 PEST_FULL_…
#>  7 Obstbau             Apfel      Schalenwickler  7036 6020-2     58 PEST_FULL_…
#>  8 Obstbau             Apfel      Schalenwickler  7074 6144        2 PEST_FULL_…
#>  9 Obstbau             Apfel      Schalenwickler  7545 6362        1 PEST_FULL_…
#> 10 Obstbau             Apfel      Schalenwickler  7808 6748        1 PEST_FULL_…
#> # ℹ 169 more rows
#> 

actives_de <- c("Emamectinbenzoat")
alternative_products(sr, actives_de, resolve_cultures = FALSE, list = TRUE)
#> $`No alternative`
#> # A tibble: 4 × 3
#>   application_area_de culture_de           pest_de                    
#>   <chr>               <chr>                <chr>                      
#> 1 Feldbau             Eiweisserbse         Eulenraupen (blattfressend)
#> 2 Obstbau             Aprikose             Pfirsichmotte              
#> 3 Obstbau             Aprikose             Pfirsichwickler            
#> 4 Obstbau             Pfirsich / Nektarine Pfirsichmotte              
#> 
#> $`Number of alternatives`
#> # A tibble: 30 × 5
#>    application_area_de culture_de   pest_de                     n_wNbr n_pNbr
#>    <chr>               <chr>        <chr>                        <int>  <int>
#>  1 Feldbau             Eiweisserbse Erbsenwickler                   13      7
#>  2 Feldbau             Eiweisserbse Eulenraupen (blattfressend)      0      0
#>  3 Gemüsebau           Blattkohle   Eulenraupen (blattfressend)      8      6
#>  4 Gemüsebau           Blattkohle   Kohlschabe                       8      6
#>  5 Gemüsebau           Blattkohle   Weisslinge                       8      6
#>  6 Gemüsebau           Blumenkohle  Eulenraupen (blattfressend)      8      6
#>  7 Gemüsebau           Blumenkohle  Kohlschabe                       8      6
#>  8 Gemüsebau           Blumenkohle  Weisslinge                       8      6
#>  9 Gemüsebau           Kopfkohle    Eulenraupen (blattfressend)     11      8
#> 10 Gemüsebau           Kopfkohle    Kohlschabe                      11      8
#> # ℹ 20 more rows
#> 
#> $`Alternative uses`
#> # A tibble: 293 × 7
#>    application_area_de culture_de   pest_de        pNbr wNbr   use_nr type      
#>    <chr>               <chr>        <chr>         <int> <chr>   <int> <chr>     
#>  1 Feldbau             Eiweisserbse Erbsenwickler  7051 6098       42 PEST_FULL…
#>  2 Feldbau             Eiweisserbse Erbsenwickler  7051 6098-1     42 PEST_FULL…
#>  3 Feldbau             Eiweisserbse Erbsenwickler  7051 6098-2     42 PEST_FULL…
#>  4 Feldbau             Eiweisserbse Erbsenwickler  7441 6382       36 PEST_FULL…
#>  5 Feldbau             Eiweisserbse Erbsenwickler  7522 6381       13 PEST_FULL…
#>  6 Feldbau             Eiweisserbse Erbsenwickler  7522 6381-1     13 PEST_FULL…
#>  7 Feldbau             Eiweisserbse Erbsenwickler  8580 6998       30 PEST_FULL…
#>  8 Feldbau             Eiweisserbse Erbsenwickler  8711 7226        1 PEST_FULL…
#>  9 Feldbau             Eiweisserbse Erbsenwickler  9326 7410        1 PEST_FULL…
#> 10 Feldbau             Eiweisserbse Erbsenwickler  9326 7410-1      1 PEST_FULL…
#> # ℹ 283 more rows
#> 
alternative_products(sr, actives_de, resolve_cultures = TRUE, list = TRUE)
#> $`No alternative`
#> # A tibble: 3 × 3
#>   application_area_de culture_de           pest_de                    
#>   <chr>               <chr>                <chr>                      
#> 1 Feldbau             Eiweisserbse         Eulenraupen (blattfressend)
#> 2 Obstbau             Aprikose             Pfirsichmotte              
#> 3 Obstbau             Pfirsich / Nektarine Pfirsichmotte              
#> 
#> $`Number of alternatives`
#> # A tibble: 66 × 5
#>    application_area_de culture_de    pest_de                     n_wNbr n_pNbr
#>    <chr>               <chr>         <chr>                        <int>  <int>
#>  1 Feldbau             Eiweisserbse  Erbsenwickler                   13      7
#>  2 Feldbau             Eiweisserbse  Eulenraupen (blattfressend)      0      0
#>  3 Gemüsebau           Blumenkohl    Eulenraupen (blattfressend)     56     28
#>  4 Gemüsebau           Blumenkohl    Kohlschabe                      49     24
#>  5 Gemüsebau           Blumenkohl    Weisslinge                      69     30
#>  6 Gemüsebau           Broccoli      Eulenraupen (blattfressend)     56     28
#>  7 Gemüsebau           Broccoli      Kohlschabe                      49     24
#>  8 Gemüsebau           Broccoli      Weisslinge                      69     30
#>  9 Gemüsebau           Cherrytomaten Tomatenminiermotte              24     11
#> 10 Gemüsebau           Chinakohl     Eulenraupen (blattfressend)     56     28
#> # ℹ 56 more rows
#> 
#> $`Alternative uses`
#> # A tibble: 2,486 × 7
#>    application_area_de culture_de   pest_de        pNbr wNbr   use_nr type      
#>    <chr>               <chr>        <chr>         <int> <chr>   <int> <chr>     
#>  1 Feldbau             Eiweisserbse Erbsenwickler  7051 6098       42 PEST_FULL…
#>  2 Feldbau             Eiweisserbse Erbsenwickler  7051 6098-1     42 PEST_FULL…
#>  3 Feldbau             Eiweisserbse Erbsenwickler  7051 6098-2     42 PEST_FULL…
#>  4 Feldbau             Eiweisserbse Erbsenwickler  7441 6382       36 PEST_FULL…
#>  5 Feldbau             Eiweisserbse Erbsenwickler  7522 6381       13 PEST_FULL…
#>  6 Feldbau             Eiweisserbse Erbsenwickler  7522 6381-1     13 PEST_FULL…
#>  7 Feldbau             Eiweisserbse Erbsenwickler  8580 6998       30 PEST_FULL…
#>  8 Feldbau             Eiweisserbse Erbsenwickler  8711 7226        1 PEST_FULL…
#>  9 Feldbau             Eiweisserbse Erbsenwickler  9326 7410        1 PEST_FULL…
#> 10 Feldbau             Eiweisserbse Erbsenwickler  9326 7410-1      1 PEST_FULL…
#> # ℹ 2,476 more rows
…
