…
## Value

A [tibble::tibble](https://tibble.tidyverse.org/reference/tibble.html)
with a row for each product section in the XML file. An attribute
'duplicated_wNbrs' is also returned, containing duplicated W-Numbers, if
applicable, or NULL.

## Examples

``` r
# Try to get current list of products
# \donttest{
try(srppp_xml_get_products())
#> # A tibble: 1,740 × 8
#>     pNbr wNbr  name          exhaustionDeadline soldoutDeadline isSalePermission
#>    <int> <chr> <chr>         <chr>              <chr>           <lgl>           
#>  1    38 18    "Thiovit Jet" ""                 ""              FALSE           
#>  2    38 18-3  "Sanoplant S… ""                 ""              TRUE            
#>  3    38 18-5  "Gesal Schro… ""                 ""              TRUE            
#>  4  1182 923   "Divopan"     ""                 ""              FALSE           
#>  5  1192 934   "Trifolin"    ""                 ""              FALSE           
#>  6  1263 986   "Elosal Supr… ""                 ""              FALSE           
#>  7  1865 1454  "Misto 12"    ""                 ""              FALSE           
#>  8  1994 1526  "Zofal D"     ""                 ""              FALSE           
#>  9  2028 1529  "Oléoc "      ""                 ""              FALSE           
#> 10  2055 1840  "Misto 20"    ""                 ""              FALSE           
#> # ℹ 1,730 more rows
#> # ℹ 2 more variables: terminationReason <chr>, permission_holder <chr>
…
