Create a dm object from an XML version of the Swiss Register of Plant Protection Products — srppp_dm • srppp
…
# Show application comments for use number 1
boxer_uses |>
  filter(use_nr == 1) |>
  left_join(sr$application_comments, join_by(pNbr, use_nr)) |>
  select(use_nr, application_comment_de)
#> # A tibble: 1 × 2
#>   use_nr application_comment_de                           
#>    <int> <chr>                                            
#> 1      1 Herbst, Frühjahr; Vorauflauf, früher Nachauflauf.

# Illustrate 'obligations' indicating varying effects
sr$obligations |>
  filter(varying_effect) |>
  select(pNbr, use_nr, code, obligation_de)
#> # A tibble: 199 × 4
#>     pNbr use_nr code  obligation_de                                             
#>    <int>  <int> <chr> <chr>                                                     
#>  1  4683      1 9299  Die Wirkungseffizienz der Nützlinge kann je nach Pflanzen…
#>  2  4683      2 9299  Die Wirkungseffizienz der Nützlinge kann je nach Pflanzen…
#>  3  4683      3 9299  Die Wirkungseffizienz der Nützlinge kann je nach Pflanzen…
#>  4  4685      1 9299  Die Wirkungseffizienz der Nützlinge kann je nach Pflanzen…
#>  5  4685      2 9299  Die Wirkungseffizienz der Nützlinge kann je nach Pflanzen…
#>  6  4751      1 9299  Die Wirkungseffizienz der Nützlinge kann je nach Pflanzen…
#>  7  4751      2 9299  Die Wirkungseffizienz der Nützlinge kann je nach Pflanzen…
#>  8  4751      3 9299  Die Wirkungseffizienz der Nützlinge kann je nach Pflanzen…
#>  9  4751      4 9299  Die Wirkungseffizienz der Nützlinge kann je nach Pflanzen…
#> 10  4751      5 9299  Die Wirkungseffizienz der Nützlinge kann je nach Pflanzen…
#> # ℹ 189 more rows
…
