Get Products from an XML version of the Swiss Register of Plant Protection Products — srppp_xml_get_products • srppp
…
    Value

    A tibble::tibble with a row for each product section
in the XML file. An attribute 'duplicated_wNbrs' is
also returned, containing duplicated W-Numbers, if applicable,
or NULL.

    Examples

# Get current list of products
# \donttest{
srppp_xml_get_products()
#> # A tibble: 1,713 × 8
#>     pNbr wNbr   name         exhaustionDeadline soldoutDeadline isSalePermission
#>    <int> <chr>  <chr>        <chr>              <chr>           <lgl>           
#>  1    38 18     Thiovit Jet  ""                 ""              FALSE           
#>  2    38 18-1   Sufralo      ""                 ""              TRUE            
#>  3    38 18-2   Capito Bio-… ""                 ""              TRUE            
#>  4    38 18-3   Sanoplant S… ""                 ""              TRUE            
#>  5    38 18-4   Biorga Cont… ""                 ""              TRUE            
#>  6  1182 923    Divopan      ""                 ""              FALSE           
#>  7  1192 934    Trifolin     ""                 ""              FALSE           
#>  8  1263 986    Elosal Supra ""                 ""              FALSE           
#>  9  1865 1454   Misto 12     ""                 ""              FALSE           
#> 10  1865 1454-2 Parafol      ""                 ""              TRUE            
#> # ℹ 1,703 more rows
#> # ℹ 2 more variables: terminationReason <chr>, permission_holder <int>
…
