Building data objects from XML versions of the PSMV • psmv
…
Usage

Creating a set of tables from a PSMV XML file is as easy as

psmv_current <- psmv_dm()

## No duplicated W-Numbers

dm_draw(psmv_current)

dm_flatten_to_tbl(psmv_current, ingredients) |> 
  select(wNbr, name, de, percent, g_per_L)

## # A tibble: 2,822 × 5
##    wNbr   name                        de         percent g_per_L
##    <chr>  <chr>                       <chr>      <chr>   <chr>  
##  1 1454   "Misto 12"                  Paraffinöl 99.1    "830.0"
##  2 1454-2 "Parafol"                   Paraffinöl 99.1    "830.0"
##  3 1526   "Zofal D"                   Paraffinöl 99.1    "830.0"
##  4 1526-1 "Capito Winterspritzmittel" Paraffinöl 99.1    "830.0"
##  5 1526-2 "Biorga Contra Winteröl"    Paraffinöl 99.1    "830.0"
##  6 1529   "Oléoc "                    Paraffinöl 99.1    "830.0"
##  7 1698   "Asulox"                    Asulam     33.2    "400.0"
##  8 18     "Thiovit Jet"               Schwefel   80.0    ""     
##  9 18-1   "Sufralo"                   Schwefel   80.0    ""     
## 10 18-2   "Capito Bio-Schwefel"       Schwefel   80.0    ""     
## # ℹ 2,812 more rows
…
